{
    "Inventories": [
        {
            "Id": "myInventory",
            "Items": [
                {
                    "Id": "itemId1",
                    "ItemName": "Potion",
                    "Values": 20.0
                },
                {
                    "Id": "ItemId2",
                    "ItemName": "Dagger",
                    "Values": 30.0
                },
                {
                    "Id": "itemId3",
                    "ItemName": "Knife",
                    "Values": 40.0
                }
            ]
        }
    ],
    "Shops": [
        {
            "Id": "myShop",
            "Inventory": [
                {
                    "Id": "myInventory",
                    "Items": [
                        {
                            "Id": "itemId1",
                            "ItemName": "Potion",
                            "Values": 20.0
                        },
                        {
                            "Id": "ItemId2",
                            "ItemName": "Dagger",
                            "Values": 30.0
                        },
                        {
                            "Id": "itemId3",
                            "ItemName": "Knife",
                            "Values": 40.0
                        }
                    ]
                }
            ]
        }
    ]
}