%YAML 1.1
%TAG !u! tag:unity3d.com,2011:
--- !u!1045 &1
EditorBuildSettings:
  m_ObjectHideFlags: 0
  serializedVersion: 2
  m_Scenes:
  - enabled: 1
    path: Assets/Simple Shop System/Samples/Scenes/Shop_Default.unity
    guid: fd08b838a1d269942ace42bd2b90fa88
  - enabled: 1
    path: Assets/Simple Shop System/Samples/Scenes/Shop_Repository.unity
    guid: 9fc0d4010bbf28b4594072e72b8655ab
  - enabled: 1
    path: Assets/Simple Shop System/Samples/Scenes/Gameplay Shop Sample.unity
    guid: bde1dc7f233ef044dbc548c6c86b5f7e
  m_configObjects: {}
